{
  "total": 16,
  "per_page": 10,
  "current_page": 1,
  "last_page": 2,
  "data": [
    {
      "id": 12,
      "name": "Sipes LLC",
      "address": {
        "country": "NO",
        "city": "North Oralview",
        "address": "883 Casandra Corners"
      },
      "website": "http://emmerich.com",
      "description": null,
      "latitude": "-45.086644",
      "longitude": "77.099016",
      "altitude": null,
      "created_at": "2014-01-01 14:19:50",
      "updated_at": "2014-01-01 14:19:50",
      "events_count": 8
    },
    {
      "id": 13,
      "name": "Funk-DuBuque",
      "address": {
        "country": "CG",
        "city": "North Dorrisland",
        "address": "238 Haley Rest"
      },
      "website": "http://schultz.org",
      "description": null,
      "latitude": "15.918606",
      "longitude": "-95.656184",
      "altitude": null,
      "created_at": "2014-01-01 14:19:50",
      "updated_at": "2014-01-01 14:19:50",
      "events_count": 9
    },
    {
      "id": 14,
      "name": "Strosin-Lehner",
      "address": {
        "country": "ZM",
        "city": "South Destinyberg",
        "address": "418 Kuphal Camp Suite 316"
      },
      "website": "http://ratke.org",
      "description": null,
      "latitude": "12.70686",
      "longitude": "77.53537",
      "altitude": null,
      "created_at": "2014-01-01 14:19:50",
      "updated_at": "2014-01-01 14:19:50",
      "events_count": 6
    },
    {
      "id": 15,
      "name": "Heller, Keeling and Rosenbaum",
      "address": {
        "country": "IS",
        "city": "Emilieview",
        "address": "545 Emile Tunnel Apt. 261"
      },
      "website": "http://kutch.com",
      "description": null,
      "latitude": "-33.875187",
      "longitude": "7.752508",
      "altitude": null,
      "created_at": "2014-01-01 14:19:50",
      "updated_at": "2014-01-01 14:19:50",
      "events_count": 10
    },
    {
      "id": 16,
      "name": "Boyer and Sons",
      "address": {
        "country": "LS",
        "city": "South Estellashire",
        "address": "5775 Mossie Parkway"
      },
      "website": "http://bergnaum.com",
      "description": null,
      "latitude": "-77.085704",
      "longitude": "38.38672",
      "altitude": null,
      "created_at": "2014-01-01 14:19:50",
      "updated_at": "2014-01-01 14:19:50",
      "events_count": 10
    },
    {
      "id": 4,
      "name": "Schaden-Jacobi",
      "address": {
        "country": "CC",
        "city": "East Scarlett",
        "address": "30766 Felipa Port"
      },
      "website": "http://aufderhar.net",
      "description": null,
      "latitude": "30.501686",
      "longitude": "-61.068141",
      "altitude": null,
      "created_at": "2014-01-01 14:19:49",
      "updated_at": "2014-01-01 14:19:49",
      "events_count": 9
    },
    {
      "id": 5,
      "name": "Rath, Halvorson and Senger",
      "address": {
        "country": "GU",
        "city": "Danielmouth",
        "address": "97376 Ernser Pass"
      },
      "website": "http://mckenzie.biz",
      "description": null,
      "latitude": "87.600233",
      "longitude": "-157.539109",
      "altitude": null,
      "created_at": "2014-01-01 14:19:49",
      "updated_at": "2014-01-01 14:19:49",
      "events_count": 7
    },
    {
      "id": 6,
      "name": "Gulgowski PLC",
      "address": {
        "country": "SA",
        "city": "Joannymouth",
        "address": "3373 Gusikowski Islands"
      },
      "website": "http://metz.biz",
      "description": null,
      "latitude": "63.43581",
      "longitude": "-4.607126",
      "altitude": null,
      "created_at": "2014-01-01 14:19:49",
      "updated_at": "2014-01-01 14:19:49",
      "events_count": 10
    },
    {
      "id": 7,
      "name": "Glover, Price and Lemke",
      "address": {
        "country": "GI",
        "city": "East Claudie",
        "address": "45571 Hermiston Mission"
      },
      "website": "http://casper.info",
      "description": null,
      "latitude": "59.453484",
      "longitude": "153.830849",
      "altitude": null,
      "created_at": "2014-01-01 14:19:49",
      "updated_at": "2014-01-01 14:19:49",
      "events_count": 6
    },
    {
      "id": 8,
      "name": "Deckow-Blick",
      "address": {
        "country": "IM",
        "city": "South Ellie",
        "address": "605 Marcelle Lane Suite 591"
      },
      "website": "http://brakus.info",
      "description": null,
      "latitude": "-13.585431",
      "longitude": "76.209973",
      "altitude": null,
      "created_at": "2014-01-01 14:19:49",
      "updated_at": "2014-01-01 14:19:49",
      "events_count": 6
    }
  ],
  "sort": {
    "created_at": "desc"
  }
}